[
  {
    "phone": "123",
    "pass": "123"
  },
  {
    "phone": "1234",
    "pass": "1234"
  },
  {
    "phone": "12345",
    "pass": "12345"
  },
  {
    "phone": "123456",
    "pass": "123456"
  },
  {
    "phone": "54321",
    "pass": "54321"
  },
  {
    "phone": "654321",
    "pass": "123456"
  },
  {
    "phone": "18667566889",
    "pass": "123456"
  },
  {
    "phone": "18667566888",
    "pass": "1235678"
  },
  {
    "phone": "19957310130",
    "pass": "123456"
  }
]